{
  "questions": [
    {
      "id": 1,
      "title": "مشکل در Auth در React",
      "description": "سلام من میخوام یه authentication ساده تو React بسازم اما این error رو بهم میده. نمیدونم مشکل از کجاست. عکس خروجی console رو هم گذاشتم که ببینید دقیقا چه مشکلی وجود داره",
      "avatar": "https://as2.ftcdn.net/v2/jpg/03/64/21/11/1000_F_364211147_1qgLVxv1Tcq0Ohz3FawUfrtONzz8nq3e.jpg",
      "image": "https://i.stack.imgur.com/2V43u.png",
      "replies": [
        {
          "id": 1,
          "name": "علی کیا",
          "avatar": "https://as2.ftcdn.net/v2/jpg/03/64/21/11/1000_F_364211147_1qgLVxv1Tcq0Ohz3FawUfrtONzz8nq3e.jpg",
          "description": "سلام من میخوام یه authentication ساده تو React بسازم اما این error رو بهم میده. نمیدونم مشکل از کجاست. عکس خروجی console رو هم گذاشتم که ببینید دقیقا چه مشکلی وجود داره",
          "date": "۱۴۰۰/۲/۱۵",
          "time": "16:48",
          "like_number": 29,
          "has_liked": false,
          "dislike_number": 41,
          "has_disliked": true
        },
        {
          "id": 2,
          "name": "علی کیا",
          "avatar": "https://as2.ftcdn.net/v2/jpg/03/64/21/11/1000_F_364211147_1qgLVxv1Tcq0Ohz3FawUfrtONzz8nq3e.jpg",
          "description": "سلام من میخوام یه authentication ساده تو React بسازم اما این error رو بهم میده. نمیدونم مشکل از کجاست. عکس خروجی console رو هم گذاشتم که ببینید دقیقا چه مشکلی وجود داره",
          "date": "۱۴۰۰/۲/۱۵",
          "time": "16:48",
          "like_number": 30,
          "has_liked": true,
          "dislike_number": 40,
          "has_disliked": false
        },
        {
          "id": 3,
          "name": "علی کیا",
          "avatar": "https://as2.ftcdn.net/v2/jpg/03/64/21/11/1000_F_364211147_1qgLVxv1Tcq0Ohz3FawUfrtONzz8nq3e.jpg",
          "description": "سلام من میخوام یه authentication ساده تو React بسازم اما این error رو بهم میده. نمیدونم مشکل از کجاست. عکس خروجی console رو هم گذاشتم که ببینید دقیقا چه مشکلی وجود داره",
          "date": "۱۴۰۰/۲/۱۵",
          "time": "16:48",
          "like_number": 30,
          "has_liked": true,
          "dislike_number": 40,
          "has_disliked": false
        },
        {
          "id": "2bi191f12m",
          "name": "الناز شاکردوست",
          "avatar": "https://as1.ftcdn.net/v2/jpg/03/67/46/48/1000_F_367464887_f0w1JrL8PddfuH3P2jSPlIGjKU2BI0rn.jpg",
          "description": "hello",
          "date": "۱۴۰۱/۴/۱۴",
          "time": "۱۳:۲۲",
          "like_number": 0,
          "has_liked": false,
          "dislike_number": 0,
          "has_disliked": false
        }
      ],
      "date": "۱۴۰۰/۲/۱۵",
      "time": "16:48"
    },
    {
      "id": 2,
      "title": "مشکل در Auth در React",
      "description": "سلام من میخوام یه authentication ساده تو React بسازم اما این error رو بهم میده. نمیدونم مشکل از کجاست. عکس خروجی console رو هم گذاشتم که ببینید دقیقا چه مشکلی وجود داره",
      "avatar": "https://as2.ftcdn.net/v2/jpg/03/64/21/11/1000_F_364211147_1qgLVxv1Tcq0Ohz3FawUfrtONzz8nq3e.jpg",
      "image": "https://i.stack.imgur.com/2V43u.png",
      "replies": [
        {
          "id": 1,
          "name": "علی کیا",
          "avatar": "https://as2.ftcdn.net/v2/jpg/03/64/21/11/1000_F_364211147_1qgLVxv1Tcq0Ohz3FawUfrtONzz8nq3e.jpg",
          "description": "سلام من میخوام یه authentication ساده تو React بسازم اما این error رو بهم میده. نمیدونم مشکل از کجاست. عکس خروجی console رو هم گذاشتم که ببینید دقیقا چه مشکلی وجود داره",
          "date": "۱۴۰۰/۲/۱۵",
          "time": "16:48",
          "like_number": 29,
          "has_liked": false,
          "dislike_number": 41,
          "has_disliked": true
        },
        {
          "id": 2,
          "name": "علی کیا",
          "avatar": "https://as2.ftcdn.net/v2/jpg/03/64/21/11/1000_F_364211147_1qgLVxv1Tcq0Ohz3FawUfrtONzz8nq3e.jpg",
          "description": "سلام من میخوام یه authentication ساده تو React بسازم اما این error رو بهم میده. نمیدونم مشکل از کجاست. عکس خروجی console رو هم گذاشتم که ببینید دقیقا چه مشکلی وجود داره",
          "date": "۱۴۰۰/۲/۱۵",
          "time": "16:48",
          "like_number": 30,
          "has_liked": true,
          "dislike_number": 40,
          "has_disliked": false
        },
        {
          "id": 3,
          "name": "علی کیا",
          "avatar": "https://as2.ftcdn.net/v2/jpg/03/64/21/11/1000_F_364211147_1qgLVxv1Tcq0Ohz3FawUfrtONzz8nq3e.jpg",
          "description": "سلام من میخوام یه authentication ساده تو React بسازم اما این error رو بهم میده. نمیدونم مشکل از کجاست. عکس خروجی console رو هم گذاشتم که ببینید دقیقا چه مشکلی وجود داره",
          "date": "۱۴۰۰/۲/۱۵",
          "time": "16:48",
          "like_number": 30,
          "has_liked": true,
          "dislike_number": 40,
          "has_disliked": false
        }
      ],
      "date": "۱۴۰۰/۲/۱۵",
      "time": "16:48"
    },
    {
      "id": 3,
      "title": "مشکل در Auth در React",
      "description": "سلام من میخوام یه authentication ساده تو React بسازم اما این error رو بهم میده. نمیدونم مشکل از کجاست. عکس خروجی console رو هم گذاشتم که ببینید دقیقا چه مشکلی وجود داره",
      "avatar": "https://as2.ftcdn.net/v2/jpg/03/64/21/11/1000_F_364211147_1qgLVxv1Tcq0Ohz3FawUfrtONzz8nq3e.jpg",
      "image": "https://i.stack.imgur.com/2V43u.png",
      "replies": [
        {
          "id": 1,
          "name": "علی کیا",
          "avatar": "https://as2.ftcdn.net/v2/jpg/03/64/21/11/1000_F_364211147_1qgLVxv1Tcq0Ohz3FawUfrtONzz8nq3e.jpg",
          "description": "سلام من میخوام یه authentication ساده تو React بسازم اما این error رو بهم میده. نمیدونم مشکل از کجاست. عکس خروجی console رو هم گذاشتم که ببینید دقیقا چه مشکلی وجود داره",
          "date": "۱۴۰۰/۲/۱۵",
          "time": "16:48",
          "like_number": 30,
          "has_liked": true,
          "dislike_number": 40,
          "has_disliked": false
        },
        {
          "id": 2,
          "name": "علی کیا",
          "avatar": "https://as2.ftcdn.net/v2/jpg/03/64/21/11/1000_F_364211147_1qgLVxv1Tcq0Ohz3FawUfrtONzz8nq3e.jpg",
          "description": "سلام من میخوام یه authentication ساده تو React بسازم اما این error رو بهم میده. نمیدونم مشکل از کجاست. عکس خروجی console رو هم گذاشتم که ببینید دقیقا چه مشکلی وجود داره",
          "date": "۱۴۰۰/۲/۱۵",
          "time": "16:48",
          "like_number": 30,
          "has_liked": true,
          "dislike_number": 40,
          "has_disliked": false
        },
        {
          "id": 3,
          "name": "علی کیا",
          "avatar": "https://as2.ftcdn.net/v2/jpg/03/64/21/11/1000_F_364211147_1qgLVxv1Tcq0Ohz3FawUfrtONzz8nq3e.jpg",
          "description": "سلام من میخوام یه authentication ساده تو React بسازم اما این error رو بهم میده. نمیدونم مشکل از کجاست. عکس خروجی console رو هم گذاشتم که ببینید دقیقا چه مشکلی وجود داره",
          "date": "۱۴۰۰/۲/۱۵",
          "time": "16:48",
          "like_number": 29,
          "has_liked": false,
          "dislike_number": 41,
          "has_disliked": true
        }
      ],
      "date": "۱۴۰۰/۲/۱۵",
      "time": "16:48"
    },
    {
      "id": 4,
      "title": "مشکل در Auth در React",
      "description": "سلام من میخوام یه authentication ساده تو React بسازم اما این error رو بهم میده. نمیدونم مشکل از کجاست. عکس خروجی console رو هم گذاشتم که ببینید دقیقا چه مشکلی وجود داره",
      "avatar": "https://as2.ftcdn.net/v2/jpg/03/64/21/11/1000_F_364211147_1qgLVxv1Tcq0Ohz3FawUfrtONzz8nq3e.jpg",
      "image": "https://i.stack.imgur.com/2V43u.png",
      "replies": [
        {
          "id": 1,
          "name": "علی کیا",
          "avatar": "https://as2.ftcdn.net/v2/jpg/03/64/21/11/1000_F_364211147_1qgLVxv1Tcq0Ohz3FawUfrtONzz8nq3e.jpg",
          "description": "سلام من میخوام یه authentication ساده تو React بسازم اما این error رو بهم میده. نمیدونم مشکل از کجاست. عکس خروجی console رو هم گذاشتم که ببینید دقیقا چه مشکلی وجود داره",
          "date": "۱۴۰۰/۲/۱۵",
          "time": "16:48",
          "like_number": 29,
          "has_liked": false,
          "dislike_number": 41,
          "has_disliked": true
        },
        {
          "id": 2,
          "name": "علی کیا",
          "avatar": "https://as2.ftcdn.net/v2/jpg/03/64/21/11/1000_F_364211147_1qgLVxv1Tcq0Ohz3FawUfrtONzz8nq3e.jpg",
          "description": "سلام من میخوام یه authentication ساده تو React بسازم اما این error رو بهم میده. نمیدونم مشکل از کجاست. عکس خروجی console رو هم گذاشتم که ببینید دقیقا چه مشکلی وجود داره",
          "date": "۱۴۰۰/۲/۱۵",
          "time": "16:48",
          "like_number": 30,
          "has_liked": true,
          "dislike_number": 40,
          "has_disliked": false
        },
        {
          "id": 3,
          "name": "علی کیا",
          "avatar": "https://as2.ftcdn.net/v2/jpg/03/64/21/11/1000_F_364211147_1qgLVxv1Tcq0Ohz3FawUfrtONzz8nq3e.jpg",
          "description": "سلام من میخوام یه authentication ساده تو React بسازم اما این error رو بهم میده. نمیدونم مشکل از کجاست. عکس خروجی console رو هم گذاشتم که ببینید دقیقا چه مشکلی وجود داره",
          "date": "۱۴۰۰/۲/۱۵",
          "time": "16:48",
          "like_number": 30,
          "has_liked": true,
          "dislike_number": 40,
          "has_disliked": false
        },
        {
          "id": "121b11j1616",
          "name": "الناز شاکردوست",
          "avatar": "https://as1.ftcdn.net/v2/jpg/03/67/46/48/1000_F_367464887_f0w1JrL8PddfuH3P2jSPlIGjKU2BI0rn.jpg",
          "description": "hello",
          "date": "۱۴۰۱/۴/۱۴",
          "time": "۱۳:۲۲",
          "like_number": 0,
          "has_liked": false,
          "dislike_number": 0,
          "has_disliked": false
        }
      ],
      "date": "۱۴۰۰/۲/۱۵",
      "time": "16:48"
    },
    {
      "title": "سلام",
      "description": "hello",
      "avatar": "https://as1.ftcdn.net/v2/jpg/03/67/46/48/1000_F_367464887_f0w1JrL8PddfuH3P2jSPlIGjKU2BI0rn.jpg",
      "replies": [],
      "date": "۱۴۰۱/۴/۱۴",
      "time": "۱۳:۳۳",
      "id": 5
    }
  ]
}